Lesson 06 - Streamlined data management using dplyr
…
flights: information about all flights that departed from NYC (e.g. EWR, JFK and LGA) in 2013.

weather: hourly meteorological data for each airport

planes: construction information about each plane

airports: airport names and locations

airlines: translation between two letter carrier codes and names

Special notice These data sets, and any data set created with dplyr has a specific data type called a tibble. These are not as furry and prolific as their cousins the tribbles. tibbles behaves for all intents and purposes as a data.frame, just gets displayed differently. For example, the flights data set contains data on 19 characteristics (variables) from 336,776 flights. There’s no way I would want to print out a data set that large. But I’m gonna….

flights

## # A tibble: 336,776 x 19
##     year month   day dep_time sched_dep_time dep_delay arr_time
##    <int> <int> <int>    <int>          <int>     <dbl>    <int>
##  1  2013     1     1      517            515      2.00      830
##  2  2013     1     1      533            529      4.00      850
##  3  2013     1     1      542            540      2.00      923
##  4  2013     1     1      544            545     -1.00     1004
##  5  2013     1     1      554            600     -6.00      812
##  6  2013     1     1      554            558     -4.00      740
##  7  2013     1     1      555            600     -5.00      913
##  8  2013     1     1      557            600     -3.00      709
##  9  2013     1     1      557            600     -3.00      838
## 10  2013     1     1      558            600     -2.00      753
## # ... with 336,766 more rows, and 12 more variables: sched_arr_time <int>,
## #   arr_delay <dbl>, carrier <chr>, flight <int>, tailnum <chr>,
## #   origin <chr>, dest <chr>, air_time <dbl>, distance <dbl>, hour <dbl>,
## #   minute <dbl>, time_hour <dttm>
…
select(): Returns a subset of the columns.

mutate(): Adds columns from existing data.

summarise(): Reduces each group to a single row by calculating aggregate measures.

group_by(): Groups a data set on a factor variable, such that all functions peformed are then done on each level of the factor.

Filter

filter() allows you to select a subset of the rows of a data frame. The first argument is the name of the data frame, and the second and subsequent are filtering expressions evaluated in the context of that data frame. For example, we can select all flights on January 1st with

filter(flights, month == 1, day == 1)

## # A tibble: 842 x 19
##     year month   day dep_time sched_dep_time dep_delay arr_time
##    <int> <int> <int>    <int>          <int>     <dbl>    <int>
##  1  2013     1     1      517            515      2.00      830
##  2  2013     1     1      533            529      4.00      850
##  3  2013     1     1      542            540      2.00      923
##  4  2013     1     1      544            545     -1.00     1004
##  5  2013     1     1      554            600     -6.00      812
##  6  2013     1     1      554            558     -4.00      740
##  7  2013     1     1      555            600     -5.00      913
##  8  2013     1     1      557            600     -3.00      709
##  9  2013     1     1      557            600     -3.00      838
## 10  2013     1     1      558            600     -2.00      753
## # ... with 832 more rows, and 12 more variables: sched_arr_time <int>,
## #   arr_delay <dbl>, carrier <chr>, flight <int>, tailnum <chr>,
## #   origin <chr>, dest <chr>, air_time <dbl>, distance <dbl>, hour <dbl>,
## #   minute <dbl>, time_hour <dttm>

filter() works similarly to subset() except that you can give it any number of filtering conditions which are joined together with &. You can use other Boolean operators explicitly. Fill in the blanks to filter the flights data set to only select flights in January or February.

filter(flights, month == 1 | month == 2)

## # A tibble: 51,955 x 19
##     year month   day dep_time sched_dep_time dep_delay arr_time
##    <int> <int> <int>    <int>          <int>     <dbl>    <int>
##  1  2013     1     1      517            515      2.00      830
##  2  2013     1     1      533            529      4.00      850
##  3  2013     1     1      542            540      2.00      923
##  4  2013     1     1      544            545     -1.00     1004
##  5  2013     1     1      554            600     -6.00      812
##  6  2013     1     1      554            558     -4.00      740
##  7  2013     1     1      555            600     -5.00      913
##  8  2013     1     1      557            600     -3.00      709
##  9  2013     1     1      557            600     -3.00      838
## 10  2013     1     1      558            600     -2.00      753
## # ... with 51,945 more rows, and 12 more variables: sched_arr_time <int>,
## #   arr_delay <dbl>, carrier <chr>, flight <int>, tailnum <chr>,
## #   origin <chr>, dest <chr>, air_time <dbl>, distance <dbl>, hour <dbl>,
## #   minute <dbl>, time_hour <dttm>

Select

Often you work with large data sets with many columns where only a few are actually of interest to you. select() allows you to rapidly zoom in on a useful subset using operations that usually only work on numeric variable positions.

select(flights, month, day, year)

## # A tibble: 336,776 x 3
##    month   day  year
##    <int> <int> <int>
##  1     1     1  2013
##  2     1     1  2013
##  3     1     1  2013
##  4     1     1  2013
##  5     1     1  2013
##  6     1     1  2013
##  7     1     1  2013
##  8     1     1  2013
##  9     1     1  2013
## 10     1     1  2013
## # ... with 336,766 more rows

Type select(flights, year:day) to select all columns physically located between year and day.

select(flights, sched_dep_time:carrier)

## # A tibble: 336,776 x 6
##    sched_dep_time dep_delay arr_time sched_arr_time arr_delay carrier
##             <int>     <dbl>    <int>          <int>     <dbl> <chr>  
##  1            515      2.00      830            819     11.0  UA     
##  2            529      4.00      850            830     20.0  UA     
##  3            540      2.00      923            850     33.0  AA     
##  4            545     -1.00     1004           1022    -18.0  B6     
##  5            600     -6.00      812            837    -25.0  DL     
##  6            558     -4.00      740            728     12.0  UA     
##  7            600     -5.00      913            854     19.0  B6     
##  8            600     -3.00      709            723    -14.0  EV     
##  9            600     -3.00      838            846    - 8.00 B6     
## 10            600     -2.00      753            745      8.00 AA     
## # ... with 336,766 more rows
Type select(flights, -(year:day)) to select all columns EXCEPT the ones between year and day.

select(flights, -carrier)

Mutate

As well as selecting from the set of existing columns, it’s often useful to add new columns that are functions of existing columns. This is the job of mutate()!

Here we create two variables: gain (as arrival delay minus departure delay) and speed (as distance divided by time, converted to hours).

a <- mutate(flights, gain = arr_delay - dep_delay, 
                speed = distance / air_time * 60)
select(a, gain, distance, air_time, speed)

## # A tibble: 336,776 x 4
##      gain distance air_time speed
##     <dbl>    <dbl>    <dbl> <dbl>
##  1   9.00     1400    227     370
##  2  16.0      1416    227     374
##  3  31.0      1089    160     408
##  4 -17.0      1576    183     517
##  5 -19.0       762    116     394
##  6  16.0       719    150     288
##  7  24.0      1065    158     404
##  8 -11.0       229     53.0   259
##  9 - 5.00      944    140     405
## 10  10.0       733    138     319
## # ... with 336,766 more rows

One key advantage of mutate is that you can refer to the columns you just created. Mutate flights to create two variables, gain = arr_delay - dep_delay and gain_per_hour = gain / (air_time / 60).

mutate(flights, gain = arr_delay - dep_delay, 
                gain_per_hour = gain / (air_time / 60 ))

## # A tibble: 336,776 x 21
##     year month   day dep_time sched_dep_time dep_delay arr_time
##    <int> <int> <int>    <int>          <int>     <dbl>    <int>
##  1  2013     1     1      517            515      2.00      830
##  2  2013     1     1      533            529      4.00      850
##  3  2013     1     1      542            540      2.00      923
##  4  2013     1     1      544            545     -1.00     1004
##  5  2013     1     1      554            600     -6.00      812
##  6  2013     1     1      554            558     -4.00      740
##  7  2013     1     1      555            600     -5.00      913
##  8  2013     1     1      557            600     -3.00      709
##  9  2013     1     1      557            600     -3.00      838
## 10  2013     1     1      558            600     -2.00      753
## # ... with 336,766 more rows, and 14 more variables: sched_arr_time <int>,
## #   arr_delay <dbl>, carrier <chr>, flight <int>, tailnum <chr>,
## #   origin <chr>, dest <chr>, air_time <dbl>, distance <dbl>, hour <dbl>,
## #   minute <dbl>, time_hour <dttm>, gain <dbl>, gain_per_hour <dbl>
…
Grouped Operations

The above verbs are useful, but they become really powerful when you combine them with the idea of “group by”, repeating the operation individually on groups of observations within the dataset. In dplyr, you use the group_by() function to describe how to break a dataset down into groups of rows. You can then use the resulting object in exactly the same functions as above; they’ll automatically work “by group” when the input is a grouped.

Let’s demonstrate how some of these functions work after grouping the flights data set by month. First we’ll create a new data set that is grouped by month.

by_month <- group_by(flights, month)

If we want to sort the data, arrange() orders first by grouping variables, then by the sorting variable.

how_long <- arrange(by_month, distance)
select(how_long, month, distance)

## # A tibble: 336,776 x 2
## # Groups:   month [12]
##    month distance
##    <int>    <dbl>
##  1     7     17.0
##  2     1     80.0
##  3     1     80.0
##  4     1     80.0
##  5     1     80.0
##  6     1     80.0
##  7     1     80.0
##  8     1     80.0
##  9     1     80.0
## 10     1     80.0
## # ... with 336,766 more rows
…
Woah, that is HARD to read! This is difficult to read because the order of the operations is from inside to out, and the arguments are a long way away from the function. To get around this problem, dplyr provides the %>% operator. x %>% f(y) turns into f(x, y) so you can use it to rewrite multiple operations so you can read from left-to-right, top-to-bottom:

flights %>%
  group_by(year, month, day) %>%
  select(arr_delay, dep_delay) %>%
  summarise(
    arr = mean(arr_delay, na.rm = TRUE),
    dep = mean(dep_delay, na.rm = TRUE)
  ) %>%
  filter(arr > 30 | dep > 30)

## Adding missing grouping variables: `year`, `month`, `day`

## # A tibble: 49 x 5
## # Groups:   year, month [11]
##     year month   day   arr   dep
##    <int> <int> <int> <dbl> <dbl>
##  1  2013     1    16  34.2  24.6
##  2  2013     1    31  32.6  28.7
##  3  2013     2    11  36.3  39.1
##  4  2013     2    27  31.3  37.8
##  5  2013     3     8  85.9  83.5
##  6  2013     3    18  41.3  30.1
##  7  2013     4    10  38.4  33.0
##  8  2013     4    12  36.0  34.8
##  9  2013     4    18  36.0  34.9
## 10  2013     4    19  47.9  46.1
## # ... with 39 more rows
…
